<?xml version="1.0" encoding="UTF-8"?>
<svg width="14px" height="13px" viewBox="0 0 14 13" version="1.1" xmlns="http://www.w3.org/2000/svg" xmlns:xlink="http://www.w3.org/1999/xlink">
    <!-- Generator: Sketch 56.3 (81716) - https://sketch.com -->
    <title>icon_euro</title>
    <desc>Created with Sketch.</desc>
    <g id="Page-1" stroke="none" stroke-width="1" fill="none" fill-rule="evenodd">
        <g id="icon_euro" transform="translate(-0.197534, -2.026283)" fill="#000000" fill-rule="nonzero">
            <path d="M8.53967438,14.9782454 C12.1235179,14.9782454 15.0287971,12.0729662 15.0287971,8.48912269 C15.0287971,4.90527919 12.1235179,2 8.53967438,2 C4.95583088,2 2.05055169,4.90527919 2.05055169,8.48912269 C2.05055169,9.04140744 2.49826694,9.48912269 3.05055169,9.48912269 C3.60283644,9.48912269 4.05055169,9.04140744 4.05055169,8.48912269 C4.05055169,6.00984869 6.06040038,4 8.53967438,4 C11.0189484,4 13.0287971,6.00984869 13.0287971,8.48912269 C13.0287971,10.9683967 11.0189484,12.9782454 8.53967438,12.9782454 C7.98738963,12.9782454 7.53967438,13.4259606 7.53967438,13.9782454 C7.53967438,14.5305301 7.98738963,14.9782454 8.53967438,14.9782454 Z" id="Oval" transform="translate(8.539674, 8.489123) rotate(-135.000000) translate(-8.539674, -8.489123) "></path>
            <path d="M1.57934875,8.00771839 L8.5,8.00771839 C9.05228475,8.00771839 9.5,7.56000314 9.5,7.00771839 C9.5,6.45543364 9.05228475,6.00771839 8.5,6.00771839 L1.57934875,6.00771839 C1.027064,6.00771839 0.579348751,6.45543364 0.579348751,7.00771839 C0.579348751,7.56000314 1.027064,8.00771839 1.57934875,8.00771839 Z" id="Line"></path>
            <path d="M1.61902313,10.970527 L8.53967438,10.970527 C9.09195913,10.970527 9.53967438,10.5228117 9.53967438,9.97052699 C9.53967438,9.41824224 9.09195913,8.97052699 8.53967438,8.97052699 L1.61902313,8.97052699 C1.06673838,8.97052699 0.619023127,9.41824224 0.619023127,9.97052699 C0.619023127,10.5228117 1.06673838,10.970527 1.61902313,10.970527 Z" id="Line-Copy"></path>
        </g>
    </g>
</svg>